[
    {
        "_id": "b-05",
        "_parentId": "a-05",
        "_type": "block",
        "_classes": "",
        "title": "b-05",
        "displayTitle": "",
        "body": "",
        "_trackingId": 1
    },
    {
        "_id": "b-10",
        "_parentId": "a-05",
        "_type": "block",
        "_classes": "",
        "title": "b-10",
        "displayTitle": "",
        "body": "",
        "_trackingId": 2
    },
    {
        "_id": "b-25",
        "_parentId": "a-05",
        "_type": "block",
        "_classes": "",
        "title": "b-25",
        "displayTitle": "",
        "body": "",
        "_trackingId": 3
    },
    {
        "_id": "b-30",
        "_parentId": "a-05",
        "_type": "block",
        "_classes": "",
        "title": "b-30",
        "displayTitle": "",
        "body": "",
        "_trackingId": 4
    },
    {
        "_id": "b-50",
        "_parentId": "a-10",
        "_type": "block",
        "_classes": "",
        "title": "b-50",
        "displayTitle": "",
        "body": "",
        "_trackingId": 5
    },
    {
        "_id": "b-65",
        "_parentId": "a-10",
        "_type": "block",
        "_classes": "",
        "title": "b-65",
        "displayTitle": "",
        "body": "",
        "_trackingId": 6
    },
    {
        "_id": "b-70",
        "_parentId": "a-10",
        "_type": "block",
        "_classes": "",
        "title": "b-70",
        "displayTitle": "",
        "body": "",
        "_trackingId": 7
    },
    {
        "_id": "b-75",
        "_parentId": "a-10",
        "_type": "block",
        "_classes": "",
        "title": "b-75",
        "displayTitle": "",
        "body": "",
        "_trackingId": 8
    },
    {
        "_id": "b-80",
        "_parentId": "a-10",
        "_type": "block",
        "_classes": "",
        "title": "b-80",
        "displayTitle": "",
        "body": "",
        "_trackingId": 9
    },
    {
        "_id": "b-85",
        "_parentId": "a-10",
        "_type": "block",
        "_classes": "",
        "title": "b-85",
        "displayTitle": "",
        "body": "",
        "_trackingId": 10
    },
    {
        "_id": "b-90",
        "_parentId": "a-10",
        "_type": "block",
        "_classes": "",
        "title": "b-90",
        "displayTitle": "",
        "body": "",
        "_trackingId": 11
    }
]