﻿[
	{
		"_id": "co-05",
		"_parentId": "course",
		"_type": "page",
		"_classes": "",
		"title": "فيسبوك وInstagram",
		"displayTitle": "فيسبوك وInstagram",
		"pageBody": "&#160;",
		"body": "مهما كان الهدف الذي تسعى إلى تحقيقه، فلا غنى عن استخدام <i>كل من</i> فيسبوك وInstagram، كأبرز منصات إعلانية في عالمنا اليوم. وهما منصتان متميزتان لإدارة كل من الوسائط الرقمية ووسائط الهواتف المحمولة.",
		"_graphic": {
			"src": "course/en/articles/01_fb_and_ig.jpg",
			"alt": "عنصر نائب لصورة."
		},
		"linkText": "عرض",
		"durationLabel": "المدة:",
		"duration": "دقيقتان",
		"_pageLevelProgress": {
			"_isEnabled": true
		}
	},
	{
		"_id": "co-10",
		"_parentId": "course",
		"_type": "page",
		"_classes": "",
		"title": "استخدام تصميم الإعلان على فيسبوك وInstagram",
		"displayTitle": "استخدام تصميم الإعلان على فيسبوك وInstagram",
		"pageBody": "&#160;",
		"body": "من خلال دمج Instagram في واجهات المعلنين على فيسبوك، يمكن لمسؤولي التسويق تحقيق أقصى استفادة ممكنة من هاتين المنصتين.",
		"_graphic": {
			"src": "course/en/articles/02_using_creative.jpg",
			"alt": "عنصر نائب لصورة."
		},
		"linkText": "عرض",
		"durationLabel": "المدة:",
		"duration": "دقيقتان",
		"_pageLevelProgress": {
			"_isEnabled": true
		}
	}
]
